<svg width="212" height="126" viewBox="0 0 212 126" fill="none" xmlns="http://www.w3.org/2000/svg">
<path d="M25.5001 125.5L0.00012207 18C102 -22 212 18 212 18L186.5 125.5C186.5 125.5 106 101 25.5001 125.5Z" fill="cyan"/>
</svg>
